^C:\USERS\НИКИТА\DOCUMENTS\VISUAL STUDIO 2013\PROJECTS\CFT_DEMO\CFT_DEMO\MAIN.CPP
C:\USERS\никита\DOCUMENTS\VISUAL STUDIO 2013\PROJECTS\CFT_DEMO\CFT_DEMO\DEBUG\VC120.PDB
C:\USERS\никита\DOCUMENTS\VISUAL STUDIO 2013\PROJECTS\CFT_DEMO\CFT_DEMO\DEBUG\VC120.IDB
C:\USERS\Никита\DOCUMENTS\VISUAL STUDIO 2013\PROJECTS\CFT_DEMO\CFT_DEMO\DEBUG\MAIN.OBJ
^C:\TEST_FOR_JAVA\ИСХОДНЫЙ ПРОЕКТ\CFT_DEMO\CFT_DEMO\MAIN.CPP
C:\TEST_FOR_JAVA\исходный проект\CFT_DEMO\CFT_DEMO\DEBUG\VC120.PDB
C:\TEST_FOR_JAVA\исходный проект\CFT_DEMO\CFT_DEMO\DEBUG\VC120.IDB
C:\TEST_FOR_JAVA\Исходный проект\CFT_DEMO\CFT_DEMO\DEBUG\MAIN.OBJ
