^C:\USERS\НИКИТА\DOCUMENTS\VISUAL STUDIO 2013\PROJECTS\CFT_DEMO\CFT_DEMO\DEBUG\MAIN.OBJ
/OUT:"C:\USERS\НИКИТА\DOCUMENTS\VISUAL STUDIO 2013\PROJECTS\CFT_DEMO\DEBUG\SORT_IT.EXE" /INCREMENTAL /NOLOGO kernel32.lib user32.lib gdi32.lib winspool.lib comdlg32.lib advapi32.lib shell32.lib ole32.lib oleaut32.lib uuid.lib odbc32.lib odbccp32.lib /MANIFEST /MANIFESTUAC:"level='asInvoker' uiAccess='false'" /manifest:embed /DEBUG /PDB:"C:\USERS\НИКИТА\DOCUMENTS\VISUAL STUDIO 2013\PROJECTS\CFT_DEMO\DEBUG\SORT_IT.PDB" /SUBSYSTEM:CONSOLE /TLBID:1 /DYNAMICBASE /NXCOMPAT /IMPLIB:"C:\USERS\НИКИТА\DOCUMENTS\VISUAL STUDIO 2013\PROJECTS\CFT_DEMO\DEBUG\SORT_IT.LIB" /MACHINE:X86 DEBUG\MAIN.OBJ
^C:\TEST_FOR_JAVA\ИСХОДНЫЙ ПРОЕКТ\CFT_DEMO\CFT_DEMO\DEBUG\MAIN.OBJ
/OUT:"C:\TEST_FOR_JAVA\ИСХОДНЫЙ ПРОЕКТ\CFT_DEMO\DEBUG\SORT_IT.EXE" /INCREMENTAL /NOLOGO kernel32.lib user32.lib gdi32.lib winspool.lib comdlg32.lib advapi32.lib shell32.lib ole32.lib oleaut32.lib uuid.lib odbc32.lib odbccp32.lib /MANIFEST /MANIFESTUAC:"level='asInvoker' uiAccess='false'" /manifest:embed /DEBUG /PDB:"C:\TEST_FOR_JAVA\ИСХОДНЫЙ ПРОЕКТ\CFT_DEMO\DEBUG\SORT_IT.PDB" /SUBSYSTEM:CONSOLE /TLBID:1 /DYNAMICBASE /NXCOMPAT /IMPLIB:"C:\TEST_FOR_JAVA\ИСХОДНЫЙ ПРОЕКТ\CFT_DEMO\DEBUG\SORT_IT.LIB" /MACHINE:X86 DEBUG\MAIN.OBJ
